{
    "name": "Product",
    "fields": [
        {
            "fieldName": "barcode",
            "fieldType": "Integer"
        },
        {
            "fieldName": "purchasePrice",
            "fieldType": "Double"
        },
        {
            "fieldName": "name",
            "fieldType": "String"
        }
    ],
    "relationships": [],
    "changelogDate": "20190721080820",
    "entityTableName": "product",
    "dto": "no",
    "pagination": "pager",
    "service": "no",
    "jpaMetamodelFiltering": false,
    "fluentMethods": true,
    "clientRootFolder": "",
    "applications": "*"
}